<?xml version="1.0" encoding="UTF-8" standalone="no"?>
<graphml xmlns="http://graphml.graphdrawing.org/xmlns" xmlns:java="http://www.yworks.com/xml/yfiles-common/1.0/java" xmlns:sys="http://www.yworks.com/xml/yfiles-common/markup/primitives/2.0" xmlns:x="http://www.yworks.com/xml/yfiles-common/markup/2.0" xmlns:xsi="http://www.w3.org/2001/XMLSchema-instance" xmlns:y="http://www.yworks.com/xml/graphml" xmlns:yed="http://www.yworks.com/xml/yed/3" xsi:schemaLocation="http://graphml.graphdrawing.org/xmlns http://www.yworks.com/xml/schema/graphml/1.1/ygraphml.xsd">
  <!--Created by yEd 3.20.1-->
  <key attr.name="Description" attr.type="string" for="graph" id="d0"/>
  <key for="port" id="d1" yfiles.type="portgraphics"/>
  <key for="port" id="d2" yfiles.type="portgeometry"/>
  <key for="port" id="d3" yfiles.type="portuserdata"/>
  <key attr.name="url" attr.type="string" for="node" id="d4"/>
  <key attr.name="description" attr.type="string" for="node" id="d5"/>
  <key for="node" id="d6" yfiles.type="nodegraphics"/>
  <key for="graphml" id="d7" yfiles.type="resources"/>
  <key attr.name="url" attr.type="string" for="edge" id="d8"/>
  <key attr.name="description" attr.type="string" for="edge" id="d9"/>
  <key for="edge" id="d10" yfiles.type="edgegraphics"/>
  <graph edgedefault="directed" id="G">
    <data key="d0"/>
    <node id="n0">
      <data key="d5"/>
      <data key="d6">
        <y:GenericNode configuration="BevelNode3">
          <y:Geometry height="342.9938749173953" width="964.5" x="233.75" y="86.02549743652341"/>
          <y:Fill color2="#339966" hasColor="false" transparent="false"/>
          <y:BorderStyle color="#339966" type="line" width="7.0"/>
          <y:NodeLabel alignment="center" autoSizePolicy="content" fontFamily="Calibri" fontSize="22" fontStyle="plain" hasBackgroundColor="false" hasLineColor="false" height="26.0" horizontalTextPosition="center" iconTextGap="4" modelName="custom" textColor="#339966" verticalTextPosition="bottom" visible="true" width="60.052734375" x="65.76517081103646" xml:space="preserve" y="38.85678164905741">Realm<y:LabelModel><y:SmartNodeLabelModel distance="4.0"/></y:LabelModel><y:ModelParameter><y:SmartNodeLabelModelParameter labelRatioX="-0.5" labelRatioY="-0.5" nodeRatioX="-0.4318142345142183" nodeRatioY="-0.386712899294731" offsetX="0.0" offsetY="0.0" upX="0.0" upY="-1.0"/></y:ModelParameter></y:NodeLabel>
          <y:StyleProperties>
            <y:Property class="java.lang.Boolean" name="ModernNodeShadow" value="false"/>
          </y:StyleProperties>
        </y:GenericNode>
      </data>
    </node>
    <node id="n1">
      <data key="d5"/>
      <data key="d6">
        <y:GenericNode configuration="BevelNode3">
          <y:Geometry height="251.99387491739532" width="734.5" x="233.75" y="545.5030625413024"/>
          <y:Fill color2="#339966" hasColor="false" transparent="false"/>
          <y:BorderStyle color="#339966" type="line" width="7.0"/>
          <y:NodeLabel alignment="center" autoSizePolicy="content" fontFamily="Calibri" fontSize="22" fontStyle="plain" hasBackgroundColor="false" hasLineColor="false" height="26.0" horizontalTextPosition="center" iconTextGap="4" modelName="custom" textColor="#339966" verticalTextPosition="bottom" visible="true" width="208.1875" x="22.687137866393982" xml:space="preserve" y="211.3040615929882">Out of the box support<y:LabelModel><y:SmartNodeLabelModel distance="4.0"/></y:LabelModel><y:ModelParameter><y:SmartNodeLabelModelParameter labelRatioX="-0.5" labelRatioY="0.5" nodeRatioX="-0.4691121336059986" nodeRatioY="0.4417056730874014" offsetX="0.0" offsetY="0.0" upX="0.0" upY="-1.0"/></y:ModelParameter></y:NodeLabel>
          <y:StyleProperties>
            <y:Property class="java.lang.Boolean" name="ModernNodeShadow" value="false"/>
          </y:StyleProperties>
        </y:GenericNode>
      </data>
    </node>
    <node id="n2">
      <data key="d5"/>
      <data key="d6">
        <y:GenericNode configuration="BevelNode3">
          <y:Geometry height="92.94900512695312" width="224.0" x="573.75" y="104.0"/>
          <y:Fill color="#339966" transparent="false"/>
          <y:BorderStyle hasColor="false" type="line" width="1.0"/>
          <y:NodeLabel alignment="center" autoSizePolicy="content" fontFamily="Calibri" fontSize="22" fontStyle="plain" hasBackgroundColor="false" hasLineColor="false" height="26.0" horizontalTextPosition="center" iconTextGap="4" modelName="custom" textColor="#FFFFFF" verticalTextPosition="bottom" visible="true" width="64.306640625" x="79.8466796875" xml:space="preserve" y="33.47450256347656">Clients<y:LabelModel><y:SmartNodeLabelModel distance="4.0"/></y:LabelModel><y:ModelParameter><y:SmartNodeLabelModelParameter labelRatioX="0.0" labelRatioY="0.0" nodeRatioX="0.0" nodeRatioY="0.0" offsetX="0.0" offsetY="0.0" upX="0.0" upY="-1.0"/></y:ModelParameter></y:NodeLabel>
        </y:GenericNode>
      </data>
    </node>
    <node id="n3">
      <data key="d5"/>
      <data key="d6">
        <y:GenericNode configuration="BevelNode3">
          <y:Geometry height="92.94900512695312" width="224.0" x="573.75" y="268.0"/>
          <y:Fill color="#339966" transparent="false"/>
          <y:BorderStyle hasColor="false" type="line" width="1.0"/>
          <y:NodeLabel alignment="center" autoSizePolicy="content" fontFamily="Calibri" fontSize="22" fontStyle="plain" hasBackgroundColor="false" hasLineColor="false" height="26.0" horizontalTextPosition="center" iconTextGap="4" modelName="custom" textColor="#FFFFFF" verticalTextPosition="bottom" visible="true" width="53.9404296875" x="85.02978515625" xml:space="preserve" y="33.47450256347656">Users<y:LabelModel><y:SmartNodeLabelModel distance="4.0"/></y:LabelModel><y:ModelParameter><y:SmartNodeLabelModelParameter labelRatioX="0.0" labelRatioY="0.0" nodeRatioX="0.0" nodeRatioY="0.0" offsetX="0.0" offsetY="0.0" upX="0.0" upY="-1.0"/></y:ModelParameter></y:NodeLabel>
        </y:GenericNode>
      </data>
    </node>
    <node id="n4">
      <data key="d5"/>
      <data key="d6">
        <y:GenericNode configuration="BevelNode3">
          <y:Geometry height="92.94900512695312" width="224.0" x="894.5" y="268.0"/>
          <y:Fill color="#339966" transparent="false"/>
          <y:BorderStyle hasColor="false" type="line" width="1.0"/>
          <y:NodeLabel alignment="center" autoSizePolicy="content" fontFamily="Calibri" fontSize="22" fontStyle="plain" hasBackgroundColor="false" hasLineColor="false" height="26.0" horizontalTextPosition="center" iconTextGap="4" modelName="custom" textColor="#FFFFFF" verticalTextPosition="bottom" visible="true" width="68.8720703125" x="77.56396484375" xml:space="preserve" y="33.47450256347656">Groups<y:LabelModel><y:SmartNodeLabelModel distance="4.0"/></y:LabelModel><y:ModelParameter><y:SmartNodeLabelModelParameter labelRatioX="0.0" labelRatioY="0.0" nodeRatioX="0.0" nodeRatioY="0.0" offsetX="0.0" offsetY="0.0" upX="0.0" upY="-1.0"/></y:ModelParameter></y:NodeLabel>
        </y:GenericNode>
      </data>
    </node>
    <node id="n5">
      <data key="d5"/>
      <data key="d6">
        <y:GenericNode configuration="BevelNode3">
          <y:Geometry height="92.94900512695312" width="224.0" x="253.0" y="268.0"/>
          <y:Fill color="#339966" transparent="false"/>
          <y:BorderStyle hasColor="false" type="line" width="1.0"/>
          <y:NodeLabel alignment="center" autoSizePolicy="content" fontFamily="Calibri" fontSize="22" fontStyle="plain" hasBackgroundColor="false" hasLineColor="false" height="26.0" horizontalTextPosition="center" iconTextGap="4" modelName="custom" textColor="#FFFFFF" verticalTextPosition="bottom" visible="true" width="52.146484375" x="85.9267578125" xml:space="preserve" y="33.47450256347656">Roles<y:LabelModel><y:SmartNodeLabelModel distance="4.0"/></y:LabelModel><y:ModelParameter><y:SmartNodeLabelModelParameter labelRatioX="0.0" labelRatioY="0.0" nodeRatioX="0.0" nodeRatioY="0.0" offsetX="0.0" offsetY="0.0" upX="0.0" upY="-1.0"/></y:ModelParameter></y:NodeLabel>
        </y:GenericNode>
      </data>
    </node>
    <node id="n6">
      <data key="d5"/>
      <data key="d6">
        <y:GenericNode configuration="BevelNode3">
          <y:Geometry height="92.94900512695312" width="224.0" x="573.75" y="402.0"/>
          <y:Fill color="#339966" transparent="false"/>
          <y:BorderStyle hasColor="false" type="line" width="1.0"/>
          <y:NodeLabel alignment="center" autoSizePolicy="content" fontFamily="Calibri" fontSize="22" fontStyle="plain" hasBackgroundColor="false" hasLineColor="false" height="26.0" horizontalTextPosition="center" iconTextGap="4" modelName="custom" textColor="#FFFFFF" verticalTextPosition="bottom" visible="true" width="101.345703125" x="61.3271484375" xml:space="preserve" y="33.47450256347656">Federation<y:LabelModel><y:SmartNodeLabelModel distance="4.0"/></y:LabelModel><y:ModelParameter><y:SmartNodeLabelModelParameter labelRatioX="0.0" labelRatioY="0.0" nodeRatioX="0.0" nodeRatioY="0.0" offsetX="0.0" offsetY="0.0" upX="0.0" upY="-1.0"/></y:ModelParameter></y:NodeLabel>
        </y:GenericNode>
      </data>
    </node>
    <node id="n7">
      <data key="d5"/>
      <data key="d6">
        <y:SVGNode>
          <y:Geometry height="157.61299896240234" width="167.25" x="250.875" y="577.1935005187988"/>
          <y:Fill color="#339966" transparent="false"/>
          <y:BorderStyle color="#339966" type="line" width="1.0"/>
          <y:NodeLabel alignment="center" autoSizePolicy="content" fontFamily="Calibri" fontSize="22" fontStyle="plain" hasBackgroundColor="false" hasLineColor="false" hasText="false" height="4.0" horizontalTextPosition="center" iconTextGap="4" modelName="custom" textColor="#FFFFFF" verticalTextPosition="bottom" visible="true" width="4.0" x="81.625" y="161.61299896240234">
            <y:LabelModel>
              <y:SmartNodeLabelModel distance="4.0"/>
            </y:LabelModel>
            <y:ModelParameter>
              <y:SmartNodeLabelModelParameter labelRatioX="0.0" labelRatioY="-0.5" nodeRatioX="0.0" nodeRatioY="0.5" offsetX="0.0" offsetY="4.0" upX="0.0" upY="-1.0"/>
            </y:ModelParameter>
          </y:NodeLabel>
          <y:NodeLabel alignment="center" autoSizePolicy="content" fontFamily="Calibri" fontSize="22" fontStyle="bold" hasBackgroundColor="false" hasLineColor="false" height="26.0" horizontalTextPosition="center" iconTextGap="4" modelName="custom" textColor="#FFFFFF" verticalTextPosition="bottom" visible="true" width="151.0927734375" x="12.1572265625" xml:space="preserve" y="127.61299896240234">Active Directory<y:LabelModel><y:SmartNodeLabelModel distance="4.0"/></y:LabelModel><y:ModelParameter><y:SmartNodeLabelModelParameter labelRatioX="0.5" labelRatioY="0.5" nodeRatioX="0.5" nodeRatioY="0.5" offsetX="-4.0" offsetY="-4.0" upX="0.0" upY="-1.0"/></y:ModelParameter></y:NodeLabel>
          <y:SVGNodeProperties usingVisualBounds="false"/>
          <y:SVGModel svgBoundsPolicy="0">
            <y:SVGContent refid="1"/>
          </y:SVGModel>
        </y:SVGNode>
      </data>
    </node>
    <node id="n8">
      <data key="d5"/>
      <data key="d6">
        <y:SVGNode>
          <y:Geometry height="157.61299896240234" width="167.25" x="534.875" y="587.3870010375977"/>
          <y:Fill color="#339966" transparent="false"/>
          <y:BorderStyle color="#339966" type="line" width="1.0"/>
          <y:NodeLabel alignment="center" autoSizePolicy="content" fontFamily="Calibri" fontSize="22" fontStyle="plain" hasBackgroundColor="false" hasLineColor="false" hasText="false" height="4.0" horizontalTextPosition="center" iconTextGap="4" modelName="custom" textColor="#FFFFFF" verticalTextPosition="bottom" visible="true" width="4.0" x="81.625" y="161.61299896240234">
            <y:LabelModel>
              <y:SmartNodeLabelModel distance="4.0"/>
            </y:LabelModel>
            <y:ModelParameter>
              <y:SmartNodeLabelModelParameter labelRatioX="0.0" labelRatioY="-0.5" nodeRatioX="0.0" nodeRatioY="0.5" offsetX="0.0" offsetY="4.0" upX="0.0" upY="-1.0"/>
            </y:ModelParameter>
          </y:NodeLabel>
          <y:NodeLabel alignment="center" autoSizePolicy="content" fontFamily="Calibri" fontSize="22" fontStyle="bold" hasBackgroundColor="false" hasLineColor="false" height="26.0" horizontalTextPosition="center" iconTextGap="4" modelName="custom" textColor="#FFFFFF" verticalTextPosition="bottom" visible="true" width="52.2109375" x="111.0390625" xml:space="preserve" y="127.61299896240234">LDAP<y:LabelModel><y:SmartNodeLabelModel distance="4.0"/></y:LabelModel><y:ModelParameter><y:SmartNodeLabelModelParameter labelRatioX="0.5" labelRatioY="0.5" nodeRatioX="0.5" nodeRatioY="0.5" offsetX="-4.0" offsetY="-4.0" upX="0.0" upY="-1.0"/></y:ModelParameter></y:NodeLabel>
          <y:SVGNodeProperties usingVisualBounds="true"/>
          <y:SVGModel svgBoundsPolicy="0">
            <y:SVGContent refid="1"/>
          </y:SVGModel>
        </y:SVGNode>
      </data>
    </node>
    <node id="n9">
      <data key="d5"/>
      <data key="d6">
        <y:SVGNode>
          <y:Geometry height="157.61299896240234" width="167.25" x="786.0" y="587.3870010375977"/>
          <y:Fill color="#339966" transparent="false"/>
          <y:BorderStyle color="#339966" type="line" width="1.0"/>
          <y:NodeLabel alignment="center" autoSizePolicy="content" fontFamily="Calibri" fontSize="22" fontStyle="plain" hasBackgroundColor="false" hasLineColor="false" hasText="false" height="4.0" horizontalTextPosition="center" iconTextGap="4" modelName="custom" textColor="#FFFFFF" verticalTextPosition="bottom" visible="true" width="4.0" x="81.625" y="161.61299896240234">
            <y:LabelModel>
              <y:SmartNodeLabelModel distance="4.0"/>
            </y:LabelModel>
            <y:ModelParameter>
              <y:SmartNodeLabelModelParameter labelRatioX="0.0" labelRatioY="-0.5" nodeRatioX="0.0" nodeRatioY="0.5" offsetX="0.0" offsetY="4.0" upX="0.0" upY="-1.0"/>
            </y:ModelParameter>
          </y:NodeLabel>
          <y:NodeLabel alignment="center" autoSizePolicy="content" fontFamily="Calibri" fontSize="22" fontStyle="bold" hasBackgroundColor="false" hasLineColor="false" height="26.0" horizontalTextPosition="center" iconTextGap="4" modelName="custom" textColor="#FFFFFF" verticalTextPosition="bottom" visible="true" width="86.2314453125" x="77.0185546875" xml:space="preserve" y="127.61299896240234">Kerberos<y:LabelModel><y:SmartNodeLabelModel distance="4.0"/></y:LabelModel><y:ModelParameter><y:SmartNodeLabelModelParameter labelRatioX="0.5" labelRatioY="0.5" nodeRatioX="0.5" nodeRatioY="0.5" offsetX="-4.0" offsetY="-4.0" upX="0.0" upY="-1.0"/></y:ModelParameter></y:NodeLabel>
          <y:SVGNodeProperties usingVisualBounds="true"/>
          <y:SVGModel svgBoundsPolicy="0">
            <y:SVGContent refid="1"/>
          </y:SVGModel>
        </y:SVGNode>
      </data>
    </node>
    <node id="n10">
      <data key="d5"/>
      <data key="d6">
        <y:SVGNode>
          <y:Geometry height="157.61299896240234" width="167.25" x="1028.5" y="587.3870010375977"/>
          <y:Fill color="#339966" transparent="false"/>
          <y:BorderStyle color="#339966" type="line" width="1.0"/>
          <y:NodeLabel alignment="center" autoSizePolicy="content" fontFamily="Calibri" fontSize="22" fontStyle="plain" hasBackgroundColor="false" hasLineColor="false" hasText="false" height="4.0" horizontalTextPosition="center" iconTextGap="4" modelName="custom" textColor="#FFFFFF" verticalTextPosition="bottom" visible="true" width="4.0" x="81.625" y="161.61299896240234">
            <y:LabelModel>
              <y:SmartNodeLabelModel distance="4.0"/>
            </y:LabelModel>
            <y:ModelParameter>
              <y:SmartNodeLabelModelParameter labelRatioX="0.0" labelRatioY="-0.5" nodeRatioX="0.0" nodeRatioY="0.5" offsetX="0.0" offsetY="4.0" upX="0.0" upY="-1.0"/>
            </y:ModelParameter>
          </y:NodeLabel>
          <y:NodeLabel alignment="center" autoSizePolicy="content" fontFamily="Calibri" fontSize="22" fontStyle="bold" hasBackgroundColor="false" hasLineColor="false" height="26.0" horizontalTextPosition="center" iconTextGap="4" modelName="custom" textColor="#FFFFFF" verticalTextPosition="bottom" visible="true" width="73.5771484375" x="89.6728515625" xml:space="preserve" y="127.61299896240234">Custom<y:LabelModel><y:SmartNodeLabelModel distance="4.0"/></y:LabelModel><y:ModelParameter><y:SmartNodeLabelModelParameter labelRatioX="0.5" labelRatioY="0.5" nodeRatioX="0.5" nodeRatioY="0.5" offsetX="-4.0" offsetY="-4.0" upX="0.0" upY="-1.0"/></y:ModelParameter></y:NodeLabel>
          <y:SVGNodeProperties usingVisualBounds="true"/>
          <y:SVGModel svgBoundsPolicy="0">
            <y:SVGContent refid="1"/>
          </y:SVGModel>
        </y:SVGNode>
      </data>
    </node>
    <node id="n11">
      <data key="d5"/>
      <data key="d6">
        <y:GenericNode configuration="BevelNode3">
          <y:Geometry height="251.99387491739532" width="382.5" x="998.25" y="545.5030625413024"/>
          <y:Fill color2="#339966" hasColor="false" transparent="false"/>
          <y:BorderStyle color="#339966" type="line" width="7.0"/>
          <y:NodeLabel alignment="center" autoSizePolicy="content" fontFamily="Calibri" fontSize="22" fontStyle="plain" hasBackgroundColor="false" hasLineColor="false" height="26.0" horizontalTextPosition="center" iconTextGap="4" modelName="custom" textColor="#339966" verticalTextPosition="bottom" visible="true" width="356.9560546875" x="11.814608895705533" xml:space="preserve" y="211.3040615929882">API provided to build your own adapter<y:LabelModel><y:SmartNodeLabelModel distance="4.0"/></y:LabelModel><y:ModelParameter><y:SmartNodeLabelModelParameter labelRatioX="-0.5" labelRatioY="0.5" nodeRatioX="-0.4691121336059986" nodeRatioY="0.4417056730874014" offsetX="0.0" offsetY="0.0" upX="0.0" upY="-1.0"/></y:ModelParameter></y:NodeLabel>
          <y:StyleProperties>
            <y:Property class="java.lang.Boolean" name="ModernNodeShadow" value="false"/>
          </y:StyleProperties>
        </y:GenericNode>
      </data>
    </node>
    <node id="n12">
      <data key="d5"/>
      <data key="d6">
        <y:GenericNode configuration="BevelNode3">
          <y:Geometry height="92.94900512695312" width="224.0" x="894.5" y="104.0"/>
          <y:Fill color="#339966" transparent="false"/>
          <y:BorderStyle hasColor="false" type="line" width="1.0"/>
          <y:NodeLabel alignment="center" autoSizePolicy="content" fontFamily="Calibri" fontSize="22" fontStyle="plain" hasBackgroundColor="false" hasLineColor="false" height="26.0" horizontalTextPosition="center" iconTextGap="4" modelName="custom" textColor="#FFFFFF" verticalTextPosition="bottom" visible="true" width="122.7978515625" x="50.60107421875" xml:space="preserve" y="33.47450256347656">Client Scopes<y:LabelModel><y:SmartNodeLabelModel distance="4.0"/></y:LabelModel><y:ModelParameter><y:SmartNodeLabelModelParameter labelRatioX="0.0" labelRatioY="0.0" nodeRatioX="0.0" nodeRatioY="0.0" offsetX="0.0" offsetY="0.0" upX="0.0" upY="-1.0"/></y:ModelParameter></y:NodeLabel>
        </y:GenericNode>
      </data>
    </node>
    <node id="n13">
      <data key="d5"/>
      <data key="d6">
        <y:GenericNode configuration="BevelNode3">
          <y:Geometry height="258.9490051269531" width="47.0" x="1171.5" y="128.0479323317445"/>
          <y:Fill color="#339966" transparent="false"/>
          <y:BorderStyle hasColor="false" type="line" width="1.0"/>
          <y:NodeLabel alignment="center" autoSizePolicy="content" fontFamily="Calibri" fontSize="22" fontStyle="plain" hasBackgroundColor="false" hasLineColor="false" height="26.0" horizontalTextPosition="center" iconTextGap="4" modelName="custom" rotationAngle="90.0" textColor="#FFFFFF" verticalTextPosition="bottom" visible="true" width="162.7265625" x="10.5" xml:space="preserve" y="48.11122131347656">Identity Providers<y:LabelModel><y:SmartNodeLabelModel distance="4.0"/></y:LabelModel><y:ModelParameter><y:SmartNodeLabelModelParameter labelRatioX="0.0" labelRatioY="0.0" nodeRatioX="0.0" nodeRatioY="0.0" offsetX="0.0" offsetY="0.0" upX="0.0" upY="-1.0"/></y:ModelParameter></y:NodeLabel>
        </y:GenericNode>
      </data>
    </node>
    <node id="n14">
      <data key="d5"/>
      <data key="d6">
        <y:ImageNode>
          <y:Geometry height="79.94900512695312" width="136.25" x="1329.75" y="86.02549743652341"/>
          <y:Fill color="#CCCCFF" transparent="false"/>
          <y:BorderStyle color="#000000" type="line" width="1.0"/>
          <y:NodeLabel alignment="center" autoSizePolicy="content" fontFamily="Dialog" fontSize="12" fontStyle="plain" hasBackgroundColor="false" hasLineColor="false" hasText="false" height="4.0" horizontalTextPosition="center" iconTextGap="4" modelName="sandwich" modelPosition="s" textColor="#000000" verticalTextPosition="bottom" visible="true" width="4.0" x="66.125" y="83.94900512695312"/>
          <y:Image alphaImage="true" refid="2"/>
        </y:ImageNode>
      </data>
    </node>
    <node id="n15">
      <data key="d5"/>
      <data key="d6">
        <y:ImageNode>
          <y:Geometry height="65.0" width="65.0" x="1365.375" y="335.73878255238947"/>
          <y:Fill color="#CCCCFF" transparent="false"/>
          <y:BorderStyle color="#000000" type="line" width="1.0"/>
          <y:NodeLabel alignment="center" autoSizePolicy="content" fontFamily="Dialog" fontSize="12" fontStyle="plain" hasBackgroundColor="false" hasLineColor="false" hasText="false" height="4.0" horizontalTextPosition="center" iconTextGap="4" modelName="sandwich" modelPosition="s" textColor="#000000" verticalTextPosition="bottom" visible="true" width="4.0" x="30.5" y="69.0"/>
          <y:Image alphaImage="true" refid="3"/>
        </y:ImageNode>
      </data>
    </node>
    <edge id="e0" source="n4" target="n0">
      <data key="d9"/>
      <data key="d10">
        <y:PolyLineEdge>
          <y:Path sx="0.0" sy="0.0" tx="0.0" ty="0.0"/>
          <y:LineStyle color="#000000" type="line" width="1.0"/>
          <y:Arrows source="none" target="standard"/>
          <y:BendStyle smoothed="false"/>
        </y:PolyLineEdge>
      </data>
    </edge>
    <edge id="e1" source="n4" target="n0">
      <data key="d9"/>
      <data key="d10">
        <y:PolyLineEdge>
          <y:Path sx="0.0" sy="0.0" tx="0.0" ty="0.0"/>
          <y:LineStyle color="#000000" type="line" width="1.0"/>
          <y:Arrows source="none" target="standard"/>
          <y:BendStyle smoothed="false"/>
        </y:PolyLineEdge>
      </data>
    </edge>
    <edge id="e2" source="n6" target="n7">
      <data key="d9"/>
      <data key="d10">
        <y:PolyLineEdge>
          <y:Path sx="0.0" sy="0.0" tx="0.0" ty="0.0"/>
          <y:LineStyle color="#339966" type="line" width="7.0"/>
          <y:Arrows source="standard" target="none"/>
          <y:BendStyle smoothed="false"/>
        </y:PolyLineEdge>
      </data>
    </edge>
    <edge id="e3" source="n8" target="n6">
      <data key="d9"/>
      <data key="d10">
        <y:PolyLineEdge>
          <y:Path sx="0.0" sy="0.0" tx="0.0" ty="0.0"/>
          <y:LineStyle color="#339966" type="line" width="7.0"/>
          <y:Arrows source="none" target="standard"/>
          <y:BendStyle smoothed="false"/>
        </y:PolyLineEdge>
      </data>
    </edge>
    <edge id="e4" source="n9" target="n6">
      <data key="d9"/>
      <data key="d10">
        <y:PolyLineEdge>
          <y:Path sx="0.0" sy="0.0" tx="0.0" ty="0.0"/>
          <y:LineStyle color="#339966" type="line" width="7.0"/>
          <y:Arrows source="none" target="standard"/>
          <y:BendStyle smoothed="false"/>
        </y:PolyLineEdge>
      </data>
    </edge>
    <edge id="e5" source="n6" target="n3">
      <data key="d9"/>
      <data key="d10">
        <y:PolyLineEdge>
          <y:Path sx="0.0" sy="0.0" tx="0.0" ty="0.0"/>
          <y:LineStyle color="#339966" type="line" width="5.0"/>
          <y:Arrows source="none" target="standard"/>
          <y:BendStyle smoothed="false"/>
        </y:PolyLineEdge>
      </data>
    </edge>
    <edge id="e6" source="n11" target="n6">
      <data key="d9"/>
      <data key="d10">
        <y:PolyLineEdge>
          <y:Path sx="0.0" sy="0.0" tx="0.0" ty="0.0">
            <y:Point x="1032.5" y="525.0"/>
          </y:Path>
          <y:LineStyle color="#339966" type="line" width="7.0"/>
          <y:Arrows source="none" target="standard"/>
          <y:BendStyle smoothed="false"/>
        </y:PolyLineEdge>
      </data>
    </edge>
    <edge id="e7" source="n6" target="n0">
      <data key="d9"/>
      <data key="d10">
        <y:PolyLineEdge>
          <y:Path sx="0.0" sy="0.0" tx="0.0" ty="0.0"/>
          <y:LineStyle color="#000000" type="line" width="1.0"/>
          <y:Arrows source="none" target="standard"/>
          <y:BendStyle smoothed="false"/>
        </y:PolyLineEdge>
      </data>
    </edge>
    <edge id="e8" source="n14" target="n13">
      <data key="d9"/>
      <data key="d10">
        <y:PolyLineEdge>
          <y:Path sx="0.0" sy="0.0" tx="0.0" ty="0.0"/>
          <y:LineStyle color="#339966" type="line" width="7.0"/>
          <y:Arrows source="none" target="standard"/>
          <y:BendStyle smoothed="false"/>
        </y:PolyLineEdge>
      </data>
    </edge>
    <edge id="e9" source="n15" target="n13">
      <data key="d9"/>
      <data key="d10">
        <y:PolyLineEdge>
          <y:Path sx="0.0" sy="0.0" tx="0.0" ty="0.0"/>
          <y:LineStyle color="#339966" type="line" width="7.0"/>
          <y:Arrows source="none" target="standard"/>
          <y:BendStyle smoothed="false"/>
        </y:PolyLineEdge>
      </data>
    </edge>
  </graph>
  <data key="d7">
    <y:Resources>
      <y:Resource id="1" xml:space="preserve">&lt;?xml version="1.0" encoding="utf-8"?&gt;
&lt;svg version="1.1"
	 xmlns="http://www.w3.org/2000/svg" xmlns:xlink="http://www.w3.org/1999/xlink"
	 x="0px" y="0px" width="41px" height="48px" viewBox="-0.875 -0.887 41 48" enable-background="new -0.875 -0.887 41 48"
	 xml:space="preserve"&gt;
&lt;defs&gt;
&lt;/defs&gt;
&lt;linearGradient id="SVGID_1_" gradientUnits="userSpaceOnUse" x1="642.8008" y1="-979.1445" x2="682.0508" y2="-979.1445" gradientTransform="matrix(1 0 0 -1 -642.8008 -939.4756)"&gt;
	&lt;stop  offset="0" style="stop-color:#3C89C9"/&gt;
	&lt;stop  offset="0.1482" style="stop-color:#60A6DD"/&gt;
	&lt;stop  offset="0.3113" style="stop-color:#81C1F0"/&gt;
	&lt;stop  offset="0.4476" style="stop-color:#95D1FB"/&gt;
	&lt;stop  offset="0.5394" style="stop-color:#9CD7FF"/&gt;
	&lt;stop  offset="0.636" style="stop-color:#98D4FD"/&gt;
	&lt;stop  offset="0.7293" style="stop-color:#8DCAF6"/&gt;
	&lt;stop  offset="0.8214" style="stop-color:#79BBEB"/&gt;
	&lt;stop  offset="0.912" style="stop-color:#5EA5DC"/&gt;
	&lt;stop  offset="1" style="stop-color:#3C89C9"/&gt;
&lt;/linearGradient&gt;
&lt;path fill="url(#SVGID_1_)" d="M19.625,36.763C8.787,36.763,0,34.888,0,32.575v10c0,2.313,8.787,4.188,19.625,4.188
	c10.839,0,19.625-1.875,19.625-4.188v-10C39.25,34.888,30.464,36.763,19.625,36.763z"/&gt;
&lt;linearGradient id="SVGID_2_" gradientUnits="userSpaceOnUse" x1="642.8008" y1="-973.1445" x2="682.0508" y2="-973.1445" gradientTransform="matrix(1 0 0 -1 -642.8008 -939.4756)"&gt;
	&lt;stop  offset="0" style="stop-color:#9CD7FF"/&gt;
	&lt;stop  offset="0.0039" style="stop-color:#9DD7FF"/&gt;
	&lt;stop  offset="0.2273" style="stop-color:#BDE5FF"/&gt;
	&lt;stop  offset="0.4138" style="stop-color:#D1EEFF"/&gt;
	&lt;stop  offset="0.5394" style="stop-color:#D9F1FF"/&gt;
	&lt;stop  offset="0.6155" style="stop-color:#D5EFFE"/&gt;
	&lt;stop  offset="0.6891" style="stop-color:#C9E7FA"/&gt;
	&lt;stop  offset="0.7617" style="stop-color:#B6DAF3"/&gt;
	&lt;stop  offset="0.8337" style="stop-color:#9AC8EA"/&gt;
	&lt;stop  offset="0.9052" style="stop-color:#77B0DD"/&gt;
	&lt;stop  offset="0.9754" style="stop-color:#4D94CF"/&gt;
	&lt;stop  offset="1" style="stop-color:#3C89C9"/&gt;
&lt;/linearGradient&gt;
&lt;path fill="url(#SVGID_2_)" d="M19.625,36.763c10.839,0,19.625-1.875,19.625-4.188l-1.229-2c0,2.168-8.235,3.927-18.396,3.927
	c-9.481,0-17.396-1.959-18.396-3.927l-1.229,2C0,34.888,8.787,36.763,19.625,36.763z"/&gt;
&lt;path fill="#3C89C9" d="M19.625,26.468c10.16,0,19.625,2.775,19.625,2.775c-0.375,2.721-5.367,5.438-19.554,5.438
	c-12.125,0-18.467-2.484-19.541-4.918C-0.127,29.125,9.465,26.468,19.625,26.468z"/&gt;
&lt;linearGradient id="SVGID_3_" gradientUnits="userSpaceOnUse" x1="642.8008" y1="-965.6948" x2="682.0508" y2="-965.6948" gradientTransform="matrix(1 0 0 -1 -642.8008 -939.4756)"&gt;
	&lt;stop  offset="0" style="stop-color:#3C89C9"/&gt;
	&lt;stop  offset="0.1482" style="stop-color:#60A6DD"/&gt;
	&lt;stop  offset="0.3113" style="stop-color:#81C1F0"/&gt;
	&lt;stop  offset="0.4476" style="stop-color:#95D1FB"/&gt;
	&lt;stop  offset="0.5394" style="stop-color:#9CD7FF"/&gt;
	&lt;stop  offset="0.636" style="stop-color:#98D4FD"/&gt;
	&lt;stop  offset="0.7293" style="stop-color:#8DCAF6"/&gt;
	&lt;stop  offset="0.8214" style="stop-color:#79BBEB"/&gt;
	&lt;stop  offset="0.912" style="stop-color:#5EA5DC"/&gt;
	&lt;stop  offset="1" style="stop-color:#3C89C9"/&gt;
&lt;/linearGradient&gt;
&lt;path fill="url(#SVGID_3_)" d="M19.625,23.313C8.787,23.313,0,21.438,0,19.125v10c0,2.313,8.787,4.188,19.625,4.188
	c10.839,0,19.625-1.875,19.625-4.188v-10C39.25,21.438,30.464,23.313,19.625,23.313z"/&gt;
&lt;linearGradient id="SVGID_4_" gradientUnits="userSpaceOnUse" x1="642.8008" y1="-959.6948" x2="682.0508" y2="-959.6948" gradientTransform="matrix(1 0 0 -1 -642.8008 -939.4756)"&gt;
	&lt;stop  offset="0" style="stop-color:#9CD7FF"/&gt;
	&lt;stop  offset="0.0039" style="stop-color:#9DD7FF"/&gt;
	&lt;stop  offset="0.2273" style="stop-color:#BDE5FF"/&gt;
	&lt;stop  offset="0.4138" style="stop-color:#D1EEFF"/&gt;
	&lt;stop  offset="0.5394" style="stop-color:#D9F1FF"/&gt;
	&lt;stop  offset="0.6155" style="stop-color:#D5EFFE"/&gt;
	&lt;stop  offset="0.6891" style="stop-color:#C9E7FA"/&gt;
	&lt;stop  offset="0.7617" style="stop-color:#B6DAF3"/&gt;
	&lt;stop  offset="0.8337" style="stop-color:#9AC8EA"/&gt;
	&lt;stop  offset="0.9052" style="stop-color:#77B0DD"/&gt;
	&lt;stop  offset="0.9754" style="stop-color:#4D94CF"/&gt;
	&lt;stop  offset="1" style="stop-color:#3C89C9"/&gt;
&lt;/linearGradient&gt;
&lt;path fill="url(#SVGID_4_)" d="M19.625,23.313c10.839,0,19.625-1.875,19.625-4.188l-1.229-2c0,2.168-8.235,3.926-18.396,3.926
	c-9.481,0-17.396-1.959-18.396-3.926l-1.229,2C0,21.438,8.787,23.313,19.625,23.313z"/&gt;
&lt;path fill="#3C89C9" d="M19.476,13.019c10.161,0,19.625,2.775,19.625,2.775c-0.375,2.721-5.367,5.438-19.555,5.438
	c-12.125,0-18.467-2.485-19.541-4.918C-0.277,15.674,9.316,13.019,19.476,13.019z"/&gt;
&lt;linearGradient id="SVGID_5_" gradientUnits="userSpaceOnUse" x1="642.8008" y1="-952.4946" x2="682.0508" y2="-952.4946" gradientTransform="matrix(1 0 0 -1 -642.8008 -939.4756)"&gt;
	&lt;stop  offset="0" style="stop-color:#3C89C9"/&gt;
	&lt;stop  offset="0.1482" style="stop-color:#60A6DD"/&gt;
	&lt;stop  offset="0.3113" style="stop-color:#81C1F0"/&gt;
	&lt;stop  offset="0.4476" style="stop-color:#95D1FB"/&gt;
	&lt;stop  offset="0.5394" style="stop-color:#9CD7FF"/&gt;
	&lt;stop  offset="0.636" style="stop-color:#98D4FD"/&gt;
	&lt;stop  offset="0.7293" style="stop-color:#8DCAF6"/&gt;
	&lt;stop  offset="0.8214" style="stop-color:#79BBEB"/&gt;
	&lt;stop  offset="0.912" style="stop-color:#5EA5DC"/&gt;
	&lt;stop  offset="1" style="stop-color:#3C89C9"/&gt;
&lt;/linearGradient&gt;
&lt;path fill="url(#SVGID_5_)" d="M19.625,10.113C8.787,10.113,0,8.238,0,5.925v10c0,2.313,8.787,4.188,19.625,4.188
	c10.839,0,19.625-1.875,19.625-4.188v-10C39.25,8.238,30.464,10.113,19.625,10.113z"/&gt;
&lt;linearGradient id="SVGID_6_" gradientUnits="userSpaceOnUse" x1="642.8008" y1="-946.4946" x2="682.0508" y2="-946.4946" gradientTransform="matrix(1 0 0 -1 -642.8008 -939.4756)"&gt;
	&lt;stop  offset="0" style="stop-color:#9CD7FF"/&gt;
	&lt;stop  offset="0.0039" style="stop-color:#9DD7FF"/&gt;
	&lt;stop  offset="0.2273" style="stop-color:#BDE5FF"/&gt;
	&lt;stop  offset="0.4138" style="stop-color:#D1EEFF"/&gt;
	&lt;stop  offset="0.5394" style="stop-color:#D9F1FF"/&gt;
	&lt;stop  offset="0.6155" style="stop-color:#D5EFFE"/&gt;
	&lt;stop  offset="0.6891" style="stop-color:#C9E7FA"/&gt;
	&lt;stop  offset="0.7617" style="stop-color:#B6DAF3"/&gt;
	&lt;stop  offset="0.8337" style="stop-color:#9AC8EA"/&gt;
	&lt;stop  offset="0.9052" style="stop-color:#77B0DD"/&gt;
	&lt;stop  offset="0.9754" style="stop-color:#4D94CF"/&gt;
	&lt;stop  offset="1" style="stop-color:#3C89C9"/&gt;
&lt;/linearGradient&gt;
&lt;path fill="url(#SVGID_6_)" d="M19.625,10.113c10.839,0,19.625-1.875,19.625-4.188l-1.229-2c0,2.168-8.235,3.926-18.396,3.926
	c-9.481,0-17.396-1.959-18.396-3.926L0,5.925C0,8.238,8.787,10.113,19.625,10.113z"/&gt;
&lt;linearGradient id="SVGID_7_" gradientUnits="userSpaceOnUse" x1="644.0293" y1="-943.4014" x2="680.8223" y2="-943.4014" gradientTransform="matrix(1 0 0 -1 -642.8008 -939.4756)"&gt;
	&lt;stop  offset="0" style="stop-color:#9CD7FF"/&gt;
	&lt;stop  offset="1" style="stop-color:#3C89C9"/&gt;
&lt;/linearGradient&gt;
&lt;ellipse fill="url(#SVGID_7_)" cx="19.625" cy="3.926" rx="18.396" ry="3.926"/&gt;
&lt;path opacity="0.24" fill="#FFFFFF" enable-background="new    " d="M31.04,45.982c0,0-4.354,0.664-7.29,0.781
	c-3.125,0.125-8.952,0-8.952,0l-2.384-10.292l0.044-2.108l-1.251-1.154L9.789,23.024l-0.082-0.119L9.5,20.529l-1.65-1.254
	L5.329,8.793c0,0,4.213,0.903,7.234,1.07s8.375,0.25,8.375,0.25l3,9.875l-0.25,1.313l1.063,2.168l2.312,9.645l-0.521,1.416
	l1.46,1.834L31.04,45.982z"/&gt;
&lt;/svg&gt;
</y:Resource>
      <y:Resource id="2" type="java.awt.image.BufferedImage" xml:space="preserve">iVBORw0KGgoAAAANSUhEUgAAAT4AAACfCAYAAABgD7XPAAAXsElEQVR4Xu2d38tl11nH8w9oK/aq&#13;
KFq8krFtahuNlSZaEIlEQWmhGEQJBUXQlGIv0oa2mkIxsUWEodohkM5FREl/mJqOEG8CEUQNNW0l&#13;
ZWbyYzJjO2/M/HwnM0Nysd2ftfd3n3XWOTPvr332Xnuv78WHc+Z9z7vPPufM/pznWc+z1rrlypUr&#13;
lTHGlMQt6Q+MMWbuWHzGmOKw+IwxxWHxGWOKw+IzxhSHxWeMKQ6LzxhTHBafMaY4LD5jTHFYfMaY&#13;
4rD4jDHFYfGZHtiuLl69Ul3bvlxtv15z5Vrg2uVr4XcNi8fzWOA+j0uPx+/CcWrS3+m4+js9V/Pv&#13;
1ecyZh0WnzkwklEQFgK6eqm6XHPhzfr+tTeaxyAxfn5+q7p6+pXq9RPHqwv/8+218Du4svVqeDxC&#13;
5dhvvHG9Oe71C91zdcet4Xka2a6eozExFp85MAhIURxyQlgI7PwTX6vOHH64evGB+6pT9364OvUb&#13;
769O33GoOvXzb69ePvTjO3L69p+pXr7zUPXS7/x69cof/344zg+PHKnOPfVUOD5SRKzXLzcEybYC&#13;
NOZmWHxmVzRpZ5NGhqgOydSE9PbUiersN/+hOv2XnwmSOnPHz3Zy4xaBBWrpwZkPvCuA1PSzG8Gx&#13;
BMeIj8vfI9QzX/p8dfGZp4Jwg3gVZXZp9CL9XZdam/Kw+MwNaMbLEJ5STaRB+kpaiWhCNHfP3UsR&#13;
WhDUGoFtAskwRIbt8xMZnj16pDr/wnea82QssRWhUuTF60tfsykFi8+sIZFCLQ4EePm5Z0JUF6K1&#13;
Nur6wQeaCC6V0hi8+KuNCCVBos9zRw8344VtSsxrQ+Srr9mUhMVn1tCKj0ipTh+JoI5/6INBdBBS&#13;
T9LVOA1dI6IhIe1VCh2fmyLCU3/2R9W5p59siiAhAnTEVzIWX8E0kU8sgO0gBcbJiJKI7iS7eIxu&#13;
krTjgxRYKLpQGAktOG01Orz+dswyfZ/M/LD4imbR96aCBdXSk/d/vJNdLmlsb9Sv6fn3/EhTYX78&#13;
kUZ0rfBCocbFjyKw+EyIeigGkA52RYq26soY3oo8JozGJEmDwzilIkCnwEVh8RVGk9Y1My0U6VCd&#13;
XWk5yWDcbhPELTQIEBEGAd774VC8UQWYfkA3Q88Xi68olqd00QhMJTSktWskURRtNfgHD30qjP9R&#13;
AdZsEDM/LL6C6Oa1bp0MaS1jXYp6VkRQEMg/RH51NHj23T8V0l8qwKEZes37aKaPxTdztGgAkR4X&#13;
cphhcUczbawb69rFDIo5I+npVuN/VLU1LS5+P9P32EwPi2/maNEAxBfmzM61WtszyI/ojyZopuQx&#13;
Jkr6G1aGsfwmj8U3c5hiRk8e6ZuiPEU16cVuFvAeaSYIQwJEypoCp+W30vfaTAeLbyZ0SzS1BQw1&#13;
5qqAsTLbwhHfTYnHPsOXRZ36sjIMwwWL93r1czDTwOKbFYtmZCI9LtQwVrXmwjZ7h/eS5m7P7pg+&#13;
Ft9MSFc+pi0jrJpSeOGiT4j8SHtZAcbymzYW3+RRX17TlEwVklYVjeeV3qrSF7yPDBnwZfLSQ59b&#13;
8zmYKWHxTZh4rIn7sfTSC9fsD632oh4/ImmN86Wfh5kOFt+EQXrdyiJXL1UvfOwPQkTiim2/KNJD&#13;
euF9d3Fj8lh8EyeM6W1f7nr0XLHtD0V6Sm8XS1h5IYOpY/FNmTrKI+2i0ujqbT/oiyMIr5UekZ6L&#13;
GfPC4psszaKhLK1u6fVH6HmMIj2mrfE+L/bqMHPA4psq9cXIbIIwpufUtjc0X7dLb9tIz2N688Li&#13;
mxjhAmxXSqanLL1wc0C9g2ql0b87QWvtPy0Hvwb9ntSzk5GO03PxJl6cQLM0kN5idRaP6c0Ni29C&#13;
aKtHNgBi7m0shfRiHpMlUdXyog0kpI23Nzuf0XITdmv70ufDRkYsAc8qyNwHfs64Go3CL9z1niB4&#13;
/l5tOmoxSZ93vyi9jau3FDK8Ht98sfgmBlEIbSu59uqFpd2jZd0pvJCSE6GGJZ4kE5Z6igjN1/Xv&#13;
uiXgrzVbWlK1vnr6lbCPL1JEhhJUvGL0QVBzcqiKH364XXnZUd6csfgmQNevV8uAyCincb0u2mxX&#13;
MA6LetYRE6IiOkXUOvdF02+zUfliRehUMvG/22Xyud8KEREiUySoSDBdV1AFivR8U+L0VoUMveer&#13;
52XmgsU3ASQOoiYEk0N6m6ay7FmBlLVrmSK2fuWx2CuERRgkQRZjILoMaSrjikiYMbubfDl0v2+F&#13;
jfTCjAwXMYrA4psAGm9CLrqo0wt5aIJ8ifDuuTts0rPYpexKdeH6hWY8sufNejie4N8sDMpzIqwQ&#13;
BdapcLfQ6k4FkPox3X4jRHr1+YfjeVyvCCy+zFEVVxd1GNgfeXYG53H8Qx8Ma/0phdXKxLrfnH+f&#13;
0V67mnSXJjdjgp1gWwFS+EFkIYq7Y7kSvESS3noaWllYfJkThLJ1ctdjVn2jsbM4LaTqimCUbvYt&#13;
uIOAvDgvxhipCIeKcnv+ulXxJeypgTy94EBxWHyZw0Uc2j9I30aI8iQMRXmMM5ISks4qssspUlLE&#13;
idA4z+8/eF+Qn1ahjtNbPcZtK+Vh8WWIUkYG8hGNWleGWltP7R3caiwvpIR1lMe5IQqltmEPip7H&#13;
8g5KODeW6QpC2w59giFSbSO9pfX0eC2eh1scFl+WtEvI12KhoLHjQH3PEOGpHy9stHP0SHYp7W4J&#13;
aWx97qS+YfOgWuDI2ult2Vh8GaIoKjTt1mna0OIDpYQUMEi3p9rUS0oe7rftQHyZOL01Fl+GEI1w&#13;
wV762vuql+55aze2l972jQSrXjjE281XnXDE16Sy213lVltEpo815WDxZUgYnzr9jerit26prnzj&#13;
lursx5uZGqEq2cqpb/nFx2McDOkF2TkyMjPE4ssQopHzT98VpIf8Lj1Zy++v39pVdjdR5NC4Hs9x&#13;
7ukng/RUxEjPz5ipY/FlRkjHtv49SA/hIb7L/9Tc3370LdWLv/kTXS9aKq+DEqq3jz/Stat4LMzM&#13;
FYsvE7roikH4//xoEF2KJKhxP1Ve95v2qjmZ41DI0A5i6bkZMzcsvkxQ3xmzNJTe3gh+/3+f/bFG&#13;
XkR/+xSf5Ed6S9sMfXqh1SOjhmRjNoHFlwmqPl448UiI6kQqvVh+jPsp9U2Fthu6YkktvtdPHA/R&#13;
pqudpgQsvoxgXI2ixk4RXyw/xgJPf+Snu8hvLxLksaS4iwbl1XMyZo5YfJlAinn1tedX5LYTccuL&#13;
qr67lh9LM91zd+XU1pSGxZcLFDW+98UVse2WUPj4wlu6ObYrklsD0R5r6Xn6likNi29kQvsK4rl6&#13;
KaS5NxvXS4lTYv6Of6ctL3HrC/e7pa2I9h64r1tsID0vY+aMxTcicaSlau5exHcj4paXOPWNBUi0&#13;
x9zVqU5FM+YgWHwjshDfdpii1of0QJEgqS+RnWTX9fzVP2P3MxYfaM7B4jNlYfGNjDbnoWlZ6Woq&#13;
sv2Spr7aP5YZGkR7Oa6lZ8wQWHwjg/hoXD7/r7etiKsPVPXtVnlRs/KaczGmFCy+kSHV3E8by26J&#13;
o0haXoj22AbSU9NMyVh8o7LdrILS4/jejdDxme1x/oXvZNWwTFU5iLiOfGni5n4peHx1HCy+UWnE&#13;
R//epsUnQstMZstNIYBPPXqm+t2/2gp85OH/LYLbHnyuev6UI+8xsPhGRFVdFTZSSfUNz4Fkc5uT&#13;
i/g+evjV6p2feLX65Qe2ql/45Guzh9cKx549l9VnUQoW34hoKXQKG0OID1jrL7d19mLxvf+B14qB&#13;
1/vlb71m8Y2AxTc2tYD6bGFZh6QaGqTPb4XnzWq2Rv0eIL5fvH9rRQ5z5Zc+/cMgPlL8Zqxvzfti&#13;
NobFNzKbrOgKzQghpVaUmdX83ALFR0qP+HjdFt/wWHxjcu2NkHr23bgco2PTy7f9358NRY1Q2Mgo&#13;
1S1RfMBYH8Ucz54ZHotvZNTKsinxcVyJj+fKKtJr0RhfSeJDekR9oEVosxp+mDkW34jwH14rLqfC&#13;
6hueg+gyR/GVGvEp3W1aWoj4HPUNhcU3IkF8tJdE20huAomV8cT0HHKgxIhPrTsSn9PdYbH4RoZx&#13;
tyEivrBgwdZJR3yZ0UV8bDRVp7o5NZbPGYtvTChuDCi+rAoaMYWLjyZmiS/LL6YZYvGNSS2+i9++&#13;
f0VSmyBEfLkOnlt8Id3P9vOZIRbfmAwsvpwWJliicPE98R8Xg/g8g2M4LL4xacU3VKqbbaOsxbcQ&#13;
X65fTjPD4hsTj/EFSqzqCotvHCy+MRlIfGqQZp5uloPnjvi6tfmy/HxmiMU3Ju1afPTxpbLqi7g/&#13;
0H18+SHxaeaGxTcMFt+YkNaceGzjER945kaeLK/J54hvKCy+kWH+bCqpvtHqLDwXO6tld3FZfN34&#13;
a3afzUyx+EaE/+REYamo+qZblqpOqy2+PGC6mtbk08yN5v3wtLUhsPhGBAEx7rbJebpanYX73Xp8&#13;
V5rVQNLzGY0CxQep+MJn4ybmQbD4RqSJ+E52EVkqrT7QsbkNS9xT2c1tEL1A8bEsFeLjtvksmvE9&#13;
i28YLL4R0YKgm9pMPAUBEmHmdoGVWNXVpkrIT+JL3xezOSy+EVHUNdQua8D6f9k1yRYY8cVLz6+8&#13;
H2bjWHxjM+C+ujxHt69upmN86TaMY5GKahMgPm82NA4W34goxdHy86mo+iBMVYsWOj321Z+svv/q&#13;
C3lNX6vPJd5QfEzY6Jtbjb+lsuoLjo3o2V7S4hsei29ELly/EPa43eROa910tfr2y//4jurtj/xK&#13;
9fh3j4XnTc9nTGiz4ZzUbjMWYRphfasxuFRYfbI8XW31PTGbw+IbkbDibp1ycrFvqsAh8d3797dW&#13;
P3f07updR++qfvvrf1rlNJiOaPgSCP8mEh0RPhPaS5BSKqq+4Tn+7TivO5/PohQsvhFRWwniY3mq&#13;
vufsIr3/euJt1a89enuQ3rsf/a1wS9T37Fnm7W7nNdaXAbwfRGFIaZMRn4obF97MrKeyECy+EVlq&#13;
KWnn7CpCSyW2F3QMUtt3fqURHpGe5Hfo6J3VJ479RWinCendmnMriyjiutoUWjZd5ODYjCN2ka4Z&#13;
FItvVJoLDvloBkcfO6698i8/Wn3usUOd8EQsQe4T9XlzG1hs7Uiaq+pyKqs+4fiu6I6HxZcJRH+0&#13;
mhxEfPwt0lNqqygvFR6Q7oaor10VJD2f0gjRdx3tUWUdanyPlJqCTk7N5KVg8eXCPvv5JEn+jlYV&#13;
0ljEhvB2QmN9jvq2w/vPlwDtLJuO9kCFDa3Dt3pOZpNYfJmgdDcV281AdooQGc+T0HYjPkV9VHhp&#13;
aE7PpyRUZEJEQ0R7iJVewa6NxuIbHIsvG7ZDqkVby06prn7PLaktrSpxKptK7mYgv69896tdxNOd&#13;
y8r5zZy2qLFp8alxWeN7TXGpwPd7ZCy+TAjp5h7S3bRVZT8o6uN+mM3RzuEto71CBY3tICBFe5tO&#13;
c9XGEjcuO+IbHosvE/jPTz/fbtfnI7VV8UK3e0XRoVJepXwlXIjNa2wjrVr4ivYQUyqrvtCxifgU&#13;
6bm4NA4WX0YQ9SE/VmuR4GIJqj+PVhXJC+mpMXmvxGmxqrzL6df8L0jEo0rupqepcWwtTEBqzWdt&#13;
8Y2DxZcJira4CFiOXs3MsfxIbTX1bK9jeTuhtJd5vDonLsz0POdCXNAYajksNUWT5pYQVeeMxZcN&#13;
i2Zm7qvIoSiPVpU4pe1bfKDjP/3yMyH6DDM7ZnqBSnxUVzcZ5cUQUYJny4yPxZcV293YE0tVqVWF&#13;
1FZFCDUg9y2+eJYHz4X8OKe5io9oNl4DMJXUJliereH0dkwsvgxh3IfeOqI+Utt4BkYqrE3Bc0l+&#13;
DXMY82uLCdEMjU2vuxfD8zElbq5fJlPC4suQMOhdp5mMtynSixca2DRp5EeEMoe0N5Uewtt0QUPE&#13;
TcthCaw152eGw+LLEPX0IRraTCSk/VZv90rcDK0G5+lPa2v69Ug11aQ8dLRHUQPpTf+9nD4WX5Ys&#13;
thok4kI+Q0V7KYr8aHXRXh1Zbkq+RDMLhnNUMzb3JT2El4ppEyiaVLTXNIhrHDc9ZzMkFl+WNGNp&#13;
XLREKX/45KfD4gNDRXwxiv7U5MwMj1DxzXh2Ryw8ZEPLCuJRejtUpCfxxTM13LeXBxZflrQRXwuy&#13;
GXKML0VVZAmQ1DfvHr9GLCzyybm+48//uWtQHmpMDyRZaN6v5nNdPV8zNBZf5qjQwQWMdMaI+tL2&#13;
GUV/6vfjPEOUNcKKzmnkqfFRzo1zJFKG933x77opYypqpKLaBPHYXnruZjwsvswJF/a1ZvexOx/7&#13;
vVHH+2Li9Jc1/SQ8jV9x3qmU+iROZZXaEuFJeHqfFCkjv1v/9mPd+N4QUR9yJcXmvFzQyAuLL3Mk&#13;
PlbqRTD7XX6qb3h+7d8RR4BhAL9d5WWTSLCMmyEWWn8kPJ1bfK6gcVKlvqmo+obnCIuNjhAJm5tj&#13;
8U2Ctnm4FopS3rHFp14/RBKP/3Gfc0TSVIGVAq8b1F9Ehcs/X0gi/nnTfKyCj6I7qs2cgyI8nUv6&#13;
5RDf5/Gkvor6NBbXx/hfXNDQYgRhepwruVlh8U2KpheNKi8XeiqjXFAUSGqOmIjGKNA0Kz1vBxES&#13;
wWo+cJoGxj9HdPwdf4/okCqRnWS319Rf0SB/c+vhzywJr4+xP7XLQCNwV3BzxOKbFI00kABS2csF&#13;
PyRxFKhIUIJCWsgQgQnEGKOf87hUcrHodLvf6Ffjfrc9+Fxv09cQJ8c69uy5FaGbfLD4JgYpExcU&#13;
qeReo52hWZdqxiLcDZKnUleh4+p36XPvhI6ncb/3PvzNpWlsSGy3ElSqrPukuER7ebf8lI3FNzE0&#13;
/kX6p/G+/Vz4ZgHvn1pe4qhvt2kvf6NiiWZoaNmr9PMzeWDxTYx0VoLkl17MZm8o+lPqqzG/VHLr&#13;
UGO0qrgqaKSfnckHi29ihNkcUTQRFzv2O9ZlGhT5MX6atrzcTIKSHo3KfCnpy8mpbr5YfBNGszpo&#13;
7bD8+kNDB4z7qeKbpr1xOoz0WOpK+2ikn5PJD4tvwqi5OZYfEYvldzBUkQ6pb9vykjY8r+vXW2we&#13;
tPpZmbyw+CZMqPC2DcBp5JdezGb3IL14qhupr8b9Yvl10muXm3LP3nSw+GYEY0up/Bz9HYy45eW2&#13;
hxbjftyyZ4dT22li8c2EpbT3zWuh+detLgdHfYOajfLev/lCSH2RHi1FzEBpZqSsfiYmXyy+mbBo&#13;
c2nSXqq9bnU5OHHTtFLfP/n6ke5LxuN608TimzFEIkwB00UbX8zpBW5ujN4/vkSIpPlS8TzcaWPx&#13;
zRJdkM2KJkxv01p+kp7ltzt4nzR9bnnTJUtvylh8M0djfyp6WHh7A+HxpRFWm3ZT8myw+ApAY3/x&#13;
uJ+iPxc/VtF7wnsUb7DEe+mpaPPA4isMqpBcyOny7OnFXzIaz2N8lC8L3rP0fTTTxuIriqbJluiF&#13;
wXmiP611l178JSLhKcqL98F1pDcvLL7CUDWSC5lIhrE/9fzFxY+5g+T0WiU8vgT4MlDVNpadl5ia&#13;
FxZfsTTy0/LuRDia8aEUWP1rqTTmQPy6eL3Iny8Bp7VlYPEVzHKVctH6EgswFcZc0GtDeEhfe4B4&#13;
FkYZWHzF04z7hVSO2QjtLAQEGKfAcWoIqnzmGBGmzdppSsu/SWnXVWud0paBxWdWIOoJQmh3N0MS&#13;
aoBWpKRKcI7iEzo3nTdFCyq1IcptNyJPX7spA4vPrNClwO18VC15le5jK3Jqh1FUJ7TFJRFsN+ui&#13;
3eYyfd2mHCw+s0KT9rUbeHdTtNqFEBIJxpFgnBLvFAnyuJj093oMt+uOp5/p7/X8/IzITpuaa5Vq&#13;
RXdeUMCAxWf2BSIJFdA2HSaFXCfCWIjrxCWIGkX6uFRuMTxeokPGnAtiVqSanrcxYPGZfbK9qAi3&#13;
RRH637iPfIi2tCk4VWKEqI3GU3ndDOTH3/H3HEebkUtyoQobpeSh/66N7tx0bG6ExWf2zY3Sx7ho&#13;
oN8hSSRFNCYxAgJL4ec8RtEb8PeIDLnGkgvP186sUIoep+rpORsDFp8ZhTgy07/X3TdmE1h8xpji&#13;
sPiMMcVh8RljisPiM8YUh8VnjCkOi88YUxwWnzGmOCw+Y0xxWHzGmOKw+IwxxWHxGWOKw+IzxhTH&#13;
/wOhUEJ/2bDA4AAAAABJRU5ErkJggg==</y:Resource>
      <y:Resource id="3" type="java.awt.image.BufferedImage" xml:space="preserve">iVBORw0KGgoAAAANSUhEUgAAAOEAAADhCAYAAAA+s9J6AAAll0lEQVR4Xu2dh39cV5n3/Z+8n/1A&#13;
FpK4SFaZGc2ouCeRJVnSNI2K7YSlfHbZhaWFBVK8tuPYsWXZ6r1btkklEAglQDbhDQuksGEJSUhx&#13;
ikti2VYbTfu95zmjEfIzwpN5NaM7V3qOP19Pe+659atzzj33nrsGAQDTM0BkUr0Zx4z/IkLq3VQQ&#13;
uOoHRp4fx/6RV+D7j7Mo2d0Ke00bimr7UOQbht09hAJPjyCsWnIr22D39ionBmBzd8Pi7MTWvaew&#13;
53vP4u6W1/HjP0zhKimmfAImFB8BwQvq1Y8IfaXSGi2hsi7iV8ZFQlrA18/58fBTr+N21wEU+I4i&#13;
3/0gcqoehMXVhOL6HmzePaIkHILV2Ru3UIKwmlhf2oT86g4U+vo1VleX/kxiltQPwV75n8ja9GU8&#13;
+cyb8CsRwySYsi88G9CvUQnpS/Xj5EQQfvXlWxeB+i/3Inf7QeTfcRIbyo4ip7JJWd6ubO/RpaCj&#13;
pk/PLK+yM26hBGE1UVw3qKGSkCARSUDyg0pFS3kTdtSpEvO2A6jY04o3zgOzYVXuzUYLv6iEkQCm&#13;
pmZA372mAtaW/DvszlYUuIaxuf5JFNeOaAprBlHg7tMZk+lU9JKMfKEEYTWha4ULqqIxL+g7krNE&#13;
Cbl1zxl8ZnurEnQMha4W/OEvqjKqWoDwk3VKwlDoGhWEeONCCFnb/01l3ARrTT+K9zyKHOcILFUD&#13;
ClXyVffD5urTItLMbe5OZXtH3EIJwmqCpKNXEo+gUjD2PZWGdncHPrXlITj2PgG7IquyFeu3/Dsu&#13;
qYbi1SvTcxKq/966MIGGrzapCY4oAbtRcucZ5Hv7kF3VoktBOglDJWFx7bCu55LhJGFeVWvcQgnC&#13;
aoOqoLFqaaw6Gvtu5xfOoLh+BBtc/bhpZxvyvN3YoaqlFfX7MBNrE358DfjhM+/CtnM/1t1+Aju+&#13;
+BMl4iiyyhqxZU+7yrB7vtSjV0cNtQujRS298gUShNVI7IQMQe9JQqqq3rzlqC68CmoHseXzZ7B5&#13;
7zCydh5FibMJHaffj0o4o4rCO9yHkbPjOG7/3M+RW/0IsiqUZLWqjlu+HwXeaLdEYW2XErBrXkrd&#13;
6HTKiRlhdRM7K7qQ2LkSkvH23U9gU+2YKtROqs9tuF2JmFveDkf1EKw7B6MSPvyHWdxaeg8sqsFY&#13;
WKN+qB7UryQaycdnKgjC/x/UToxBghLPvfwO1jww9irWl9+vSjxV9fT065MwDu+grnbaPCKhIKQS&#13;
LmFT76+wxnv3aVUFPayrm7oLQklIMpbUDyDf2RyXiSAInxw6SRM7Y0osLA2Jz3/zcawprDupBKRL&#13;
bzqj3Q/ufv26qWFQ12F5poIgfHJiEi4UkYhJuKNhGGuoGrp17xDyq6PXwOlOeU/0yhg6CcMzFQTh&#13;
k7Ow/5CLSJCIa6irYdudY/MXosbO8NCPhb74iQRB+OTEJPy7ItYoCakjvqRuRPdv0JcWZ3u0Pag+&#13;
y2VpgrA0Fkq4UMSYjFZPJ9bYnAOwewZgc/Xqbons8hPYsmdYl4w8Q0EQkiPWb7iYhJqaAdUmXGRC&#13;
QRCWD5FQEAxGJBQEgxEJBcFgREJBMBiRUBAMRiQUBIMRCQXBYERCQTAYkVAQDEYkFASDEQkFwWBE&#13;
QkEwGJFQEAxGJBQEgxEJBcFgDJeQ33nM4fEcHs/h8cnC80s1fH4cHs/h8akm39uCoj09sLhbkVt5&#13;
EpsahlHkHYKlrB9bah6Bo7IZtl0nUVDZBoezG4XOfhRUD8HhOqXivo/82kbFcVh8zSqvNlhpgCNX&#13;
H+hmcorLqm+9Ietrm7GhrkUT+y67oW0ea/WZeWzOs3Gsr29CVk0bNnp6kevqRElDJ9bdsQ+lXxxG&#13;
fmVmPMZBJEwAzy/V8PlxeDyHx6eaDWUtKK5XUtX2Is+phKzvwdY7B+HwdSqh1EHsG8HmOx9GyZ6z&#13;
sCgBcytphLFhtWwjyKvqhWXXIOyV6nP1AAqr1fLu6oCl9Dhyth/Ghs37cUthxw25tahTs7a4S7Ou&#13;
pFuzflOPZuMdB5FT+gBydx5CXtmDsFQcgXXXQ7BVHkVB1THkONvUcqllcJ2Bo+oUttaehl0tl8N5&#13;
BvllD8etrxGIhAng+aUaPj8Oj+fw+FSzdff39UOBHL7BqIieZqyvfBDrqx9AXu1DWFulSjPXCHI8&#13;
Q+o3tTy1/Shu6FWCNmMtCVJ0FFt3deKuf30MB068gNEfvIVnfncZL745g//9IIgrQdyQ8UAEH/tD&#13;
uDDpx/tXJvH2pXG88eElvPbeefzvux/gmRcv4OnfvofHf/U6Rn/0EjpOP4tjvT/GgZZHcd/xM9j9&#13;
tRHsuqsHhTsbcYv121hfcg+2+XqwdlsLbr/rl3HrawQiYQJ4fqmGz4/D4zk8PtUU1fRjY3kbcira&#13;
YafhMGsHYatTJVx9N3JUNc9efwo23wBsXnoQSiNyy+/FjoZDuL/tZ/jFKxO4PAlc89PDoaGfgUmP&#13;
4QsiAH/kCiaDl9SnwA0JBacRDs1oImG/BpHZKOr3qTAwHQH04/7m5rEQelR17Dd6fX8K+P25oCqt&#13;
9yPX3RK3vkYgEiaA55dq+Pw4PJ7D41NPE0rqenRbMLeiF5/dqtpX5QPqIB5T1c1+ZG35DgpK78Vd&#13;
X+/H2I9ew1vKqwllGslBB/707GX4g1cQjNDz2ul5fDHoVz+UWzdkzrWYvfEgHEckEkI4HNRMBN/D&#13;
TPAj9f0kQmoZptS86ZPF/Q3k+44tsr7Lj0iYAJ5fquHz4/B4Do9PNZv3dqpS8Biyd57EtrozKL/r&#13;
CWzyDOp2nWXnUYw9/N/43UuXMKm8CqkSKTL3zL1QcAZ+/xVEZQtEBaHfSBwSK+qg+mryExPGhJr8&#13;
Kvyhy0qsjzEd+Eg/+z0SCGoQDKkZq/mEaUGgiegZ0neKYFB/fU1R4HwAVu9Q3PoagUiYAJ5fquHz&#13;
4/B4Do9PNRZXF4p8QyjxqqpoeQs2brsPW133o2PsOX0wLyyEZmcCmJmenJNOl4OYDYQUEcz6CeVI&#13;
zMk5wgjdkFAkOP8+ov7nxGSbRwkYVjIGZwMI+Ge1giH9Hy1SUMdMKeyVR5FfORa3vkYgEiaA55dq&#13;
+Pw4PJ7D41NN7q5hFHrOYt3W4yiqakLXmT/OtbNUu44qduq4DlFJRCUQSaHlCCKo2m4zoel5nei7&#13;
iJomoltmqmEGqp5OxEuUgDAVdlToBZTDs1S4BTWhEFVBaf7XJ90ODavgCBH9A0GV4SLnAX32lq+v&#13;
EYiECeD5cXi86finM8hydWBjRRM2+bpR5GrX31t9w3CoqmfWHS36qbIHG3+E8x/ORj0LqCrdNaUV&#13;
iZHpicQllI66fRkZpz8RKCrrR64nOuq80YiECeD5cXi82Vhb2YJcdw9KGkaxbkcTHJ5eFNX0qs+9&#13;
+MyO/aj+Yht++NwF+OdKomsfqdIvQiXb3HmRTE8iYWL4Qc3h8Rwez+HxycLz4/B4s6Ef4fyFR7G2&#13;
tAub6h9HofcUNpYewdrNX8Xdx36Ac1f8uDQ5q893kHy6WqeKQjqoA7phl+FJJEwMP6g5PJ7D4zk8&#13;
Pll4fhwebzaKvZ3Iq+hAke8RrCsdwJaGs7DsvB/H+5/GZISOYWq7UVuKzqoElH/UdzerDuoAqL8v&#13;
45NImBh+UHN4PIfHc3h8svD8ODzebDiq27Cl/pSqho7q6zlvLbkXp556XZ/bpJMpU5PvQksYCer2&#13;
oD6Q505K+vVpxwxPImFi+EHN4fEcHs/h8cnC8+PweLNBnfAOTzfszmZsch/Bmaf/ivNX5iTT/XwB&#13;
zE5dw8T43Je6Wqp+m41geobO+2d4EgkTww9qDo/n8HgOj08Wnh+Hx5uN7Ko+ZFc0orB6nyoBX54r&#13;
AYFLH30IEtA/Ez0JQ8yGQxi/ehmT01OIUK88fZnpSSRMDD+oOTyew+M5PD5ZeH4cHm82LA0PY335&#13;
EXQ89oruwQuEZjA1Fb2m89qVq/oMaEBDlVO/Ylod0FMIhqYRPUmT4UkkTAw/qJOF55csPD8Ojzcb&#13;
G3a2o7hhQJV2R1Bc242SulGU1J9VJWAHNn9+GP9Y8jV0nH0ZV2NFIHVoR6YRnPHrDnHTJ5EwMfyg&#13;
TxaeX7Lw/Dg83mzkVXfrOxwKvK2wezthUdXPvF192LxnDP+w6R587cFH8Mo7kehdByTeNLX9AqDD&#13;
dsYUvfEJkkiYGH7QJwvPL1l4fhwebzZsnj7kVJ1Ecb16T3e1Vw3DWjkE665W2KqP4c/vT+lqKJ1i&#13;
CZN0qviLhKkPcBbUEWH6JBImhh/0ycLzSxaeH4fHmw5v9I54u69LDyuxtf5RFDuHsL7kPvQ+9jai&#13;
l0crCfUtENGDdto/g/HZq6oFGGBHtAmTSJgYftAnC88vWXh+HB5vPrpg9bQj39MNGnLitt2PInvz&#13;
YXz522cxHqCLm2O3G4URnA3pi6P1DQfq39UwXapt8iQSJoYf9MnC80sWnh+Hx5sNuyoJLe4OWLw9&#13;
KKo9pcdXyd1yD157O6zPfIZC1xAM0t0MgegxG1HtQ1Ul9c9VSU2fRMLE8IM+WXh+ycLz4/B4s1FU&#13;
O4CcyjbYagdh8fRj4+1Hcc9DP9F6hcIf64N0ampCiTirOyHosuzp6Ul9P54p+gETJZEwMfygTxae&#13;
X7Lw/Dg83mxsqh9FVnmzljC7shM5pUfw2oeq3Uc34+E9TE+F9UEavUlWlX0Buk40eonaSigIRULP&#13;
0g9yHp8sPL9k4flxeHyy8Pw4PD5pGlR70D0EG43NWfYQ7jsxqm/IDVGne4AfsSswzZ9vCkSvOsAV&#13;
LWFx+QDyvJ3x28sARMIE8Pw4PD5ZeH4cHp80DZ16LBU9/mfFYfz6j+8rCanqScM/rIAuiERJJFz6&#13;
Qcbjk4Xnlyw8Pw6PTxaeH4fHJ0uOpwWbdo9hw44m/NO3Tuubkq6FJlRJ6I9WOVd6EgmXfpDx+GTh&#13;
+SULz4/D45OF58fh8clya/lxbL/rFG4pvgc/fPai7pinsV9mA1Mr48RLoiQSLv0g4/HJwvNLFp4f&#13;
h8cnC8+Pw+OTJbtaHWjedjh27cM1dTRSDVQfkHTyRSSM215GIBImgOfH4fHJwvPj8PhkKdx9Cjdv&#13;
vw9f2TcWHQE0EIK+QTcShn96JZz+TJBEwqUfZDw+WXh+ycLz4/D4ZOH5cXh8sjgaxvCZzd/Gk8+9&#13;
Q2Wfli8mIV2wveKTSLj0g4zHJwvPL1l4fhwenyw8Pw6PT5asyl5kld6HcxM0HIU6BqlfIqwknJXq&#13;
6KqRMN3wg5bD4zk8nsPjMw26LG0hse/1HROKnPI+fP6bp3CNRrwF3Zobjo4XSoSWoToaUPJfntY9&#13;
5jTvazMT+u4MKpVnaRloEeiDHriXzt3S9arE3OBSfxtTOGbT9Sz8fRECqsSfnhlXsSrPyDWE1OcJ&#13;
Nd1W33/CUnk4bnsagUi4yDTJTG80iSTMLe/C/pZnMR1QB6U+N7pAQqqWpjvpC1Sj0AjZdG3qwmHs&#13;
J69N6GHrKdEi0bLNqGWdUP5dVYv76rmPNH985yJeefsCXvrrh3jxzQ/whzfex+9ffw+//fM7N+R3&#13;
b87ghT+P46XXx/GHP13C8y+P41f/A2xqaIdjtzyLIiVwaTg8nsPjOTw+00gkYU5pE5545oL2AGFd&#13;
HC6vhNFrxuCfmIlWB6mECtLdGtFHLs3q+zVCGFcl4jsfAz9/4SoONj8H75cGsM3VhFu3Hb+OW7Y2&#13;
XseG25tvyKe27cOnN9+DDTsOYOOOg7DvOok7vnAW/2frEWxwD8RtTyMQCReZJpnpjSaRhNnbD+BV&#13;
GrVQFzP0DIhowUTnZ5bjujV6PBnNW0s4VyJOX6EhNPSv+EgtxyuqwXq45xcoKL8fNxV8B0XuXpTU&#13;
jeAz244iv3ZAY6kb1Fjrh2BrGJ4ny9V1Q2x3PariHkFB7feRv2sEOWUqv+oB5Kp5FOwdjdueRiAS&#13;
LjJNMtMbTSIJLaX34CI1r+igD0UfwKJdCJODUSnTmeYHRZxrv81cmUGQHommPl+8HMA9Lc9gs/cw&#13;
Pu24G4VKmm17z2JtWTOyqttQ8Y0nYavt0lh9ncj3tiPP04YcVws2Ops1sd//Hp8tb8N6emy3exSF&#13;
3tMorhmFtboTxfXqd29T3PY0ApFwkWmSmd5oEklYcedDmAiQBeo/fd8g3cgbdSIwS3amN+mbo/Rd&#13;
+1QiRu/OoOrwa6p0vvvgWf3cQ2tVN+yuflidvXo4DruvR0nTirUVD6LIc1pT6B7TOFynNHbnqKag&#13;
euSGlNT3qfbfoB5blSjyKJkrGvXQHhtL98dtTyMQCReZJpnpjSaRhN84cBozVPWMqOIneE3bF+ud&#13;
CC5DSRiVkN6ptp//I10yfqRqpt888mPcVHQPsivVMnsHVMk0hEJfNwpc7UqydhSrZS9x9ykpj6jf&#13;
H9LYa47C4TuGwtrGeejzjdjs60dRjaqW72xEdvlxVRVtUfu1R5WKSs7akbjtaQQi4SLTJDO90SSS&#13;
sKn/V3NPVJqOSkhVwtlYlZTOlqY3+Wfnmn+Yxoz/PGhMm8d++Zpqmx1EvkdVDX0DKNytSr/aVuRV&#13;
PQTrLiWOuwe3ecawterMdSVhrASkEo4GrCJiJePfg0YSKPIOIqeqRc2vE7a6fpTsfQTZFSOwuh+L&#13;
255GYLiE/KDn8Phk4flxeDyHx3N4/HJD1asCV6euatFni5OuFVVVO3cvbi1txo9/+l+YnRfhbx1o&#13;
emQ1epvmFL1KRy1AeFx/HleztVQeU8unSjlXZjyk02hEwkWmSeX06SaRhD//5Qv0qPZ5CSMRfdkM&#13;
QgE6MzPvStrSrJ5HANRRTsvw1HMXVQl2AvnO+HVZrYiEi0yTyunTTSIJf/PbP+qLUWIS6i4DREdW&#13;
Ww4Jp/TlqQFQdZQK33/53phu9+VWdYFGguPrsxoRCReZJpXTp5tEEr7y6l91d0BMQhrQCao01BIu&#13;
Q189Xf2iO+aViONTgLXsu3o5aWRwkpGvz2pEJFxkmlROn24SSfjGW+evkzAQoE66ULQ6GrhemHQk&#13;
mu/0VHT80r+8O4tbN98Nq2sANk8/7M7WuPVZjYiEi0yTyunTTSIJz30wriXUj7tWEs7ORq8f1VXR&#13;
wN9kSWeamY62B3/2m3PILj2EHOcQaCBieiYiX5/ViEi4yDSpnD7dJJLw/KVJ3SYMUA/9QgnJimWo&#13;
jurnGKoZ0emgnu//HvmVdDXMCAp9oyj2tMStz2pEJFxkmlROn24SSXjx42mEQtRfFz0h4/fTRdxz&#13;
Es5fU5a+FJ1fULcNH+p8BvnVHUrCU6CScFONSEiYXkIez+HxK41CV48W0Frdqta3S2Pz0NOY+nHT&#13;
thO4cP5yVDhqF5J76pVuKaIUe01nCtOVOtQ1omb1YOtP9OVidPG0wzekrxXl67MaEQlNjkhofkRC&#13;
kyMSmh+R0OSIhOZHJDQ5IqH5EQlNjkhofkRCkyMSmh+R0OSIhObHcAmFpVHs6YPN2QG7W+Ht1Dh8&#13;
/bC4evGP209mhISRcFDP+4Hmp5C/6wjyvf36j4RIGEUkNDkiofkRCU2OSGh+REKTIxKaH5HQ5IiE&#13;
5kckNDkiofkRCU2OSGh+REKTIxKan7RLyDvPOTx+pcHXlxMbpPfvwePj8A7CqocPVAd0TTesioLa&#13;
QeS6BnHT9hbDJYzQ49jo2YRqVoeafwFr5UlYvCN61G19Q/Ii2yyVxG0vBo83ApEwzfARslOOZ+A6&#13;
CS3eroyW0LLrxLJKGLe9GDzeCETCNMN3OodvDw6Pj2NOQpu7EzYlYEzCHOdARkgYpuH35yR84OTP&#13;
5yWk6qhIGEUkTDN8p3MKVfvtRvD4OJSElmqquv5NQptvQEv46W3NGSFhJBS9djQmYb5nWCRcgEho&#13;
MHx7cHh8HO5+LaHV1aEl1A89URJurO7PCAlD4al5CQ+e+BnyK5q0hPQsikJ3R1wbONXEba8MRCQ0&#13;
GP6XmcPj41ggoZWevaew1vRrCT+11fizoyQhPZN+oYR57iGRcAEiYZrhBwXH6uq6ITw+Dlcf8qso&#13;
NiphnjqwScLsqr6MlDCv/LiWkLpQ6DmEfH1TTdz2YvD9ZQQiYZrhO51D44TeCB4fx5yEFmd7RkoY&#13;
DE3OS3ig6aci4SKkXcJEcCmTheeXeZxCfvkx/Mehh6MP69Q3uM49MFB/NjbRCNk3wuxJPxSKxvsP&#13;
XNGDHb/zAbBxxyEU1gyqPwSZcbGASJh2REIj07yEwau06fHKa0DObUeUhFQai4QaLlWy8PwyD5HQ&#13;
yBSI/T/3qPCnn72MnDvoefZKQlV1j99fy49ImHZEQiNTUK9CQFVFo8/k6Bj9I/LKTsKuqqN0Mit+&#13;
fy0/ImHaEQmNTFEJ6Xnhs/Crl28efAr5le36srlMeUipSJh2REIjU3QNSMIAJgKA60vd0SuMPP0o&#13;
cLctsr+WH5Ew7YiERqZ5CdV2v6o2u6P6AX2hgL6Vyi0loYZLlSw8v8xDJDQ0xaqjaruPB4AN278L&#13;
i2dQJFxdZLaEKz35wzNqO4e0h6+86odlxz44VHswt6oLxXWDi+yv5UckTDsioZFpoYS/eWEc+bfv&#13;
1xLmqXZhSa1IuEoQCY1MwUj0puKwkvCxH74OS+kh3T2R7+xBsS8zmjMiYdoRCY1MIbpmRkkYUhI2&#13;
dT6r94WtZlhfu1oct6+MQSRMOyKhkSk2vEZASfiV751GfmUz8mrUPnEvz/AanwSRMO2IhMamqISz&#13;
qllYdVeTqoZ2IrfmtD5DWiSd9asFkdDYNK27WqZVSWgv+54qAfuQU3MGVu8Qip3SWb9KEAmNTX+T&#13;
cP3mr+sxT2MSFlW3LrK/lh+RMO2IhIam4AzdRohfv/IRNpbtR4HvFIobHofd1Y8it0i4ShAJDU1z&#13;
Ej71/DnklB9QEo6gqP5RPTaPXDGzahAJDU2haQTUdh584n+QV3FYd0846s8oCaMDTcXvr+VHJEw7&#13;
IqGhKTKjb2F6oPVXyKs8AUtNPwrqaLS3bjg8n2A0u2VAJEw7IqGxaRoTfuCLd5/Vg2Hl1vQgv65H&#13;
Dw3pcA8ssr+WH5Ew7YiExqZpXJkGyurbYXP1IqemE7l1bcjztMHuHlpkfy0/ImHaEQmNTdO4PAnY&#13;
bntQ7YshZHs7sLG2Cbke6iMcWWR/LT8iYdoRCY1N0/j4GrDOcT/s3lFk17QpCRuR66XuiVOL7K/l&#13;
RyRMOyKhsWkcz78YwMYdrcitbkWRrwObvGMocI3CWif9hKsEkdDIFMFVPPXLS1pCq6cdDl8rit2j&#13;
qj14Skko/YSrBJHQyBRS1dGusVeRfVs77PVqf3ibUegcRqHnLCy1cu3oKkEkNDLNIojvHv4pNtzR&#13;
hcI9/bB5m2Cv6keR9/uw+qSzfpUgEhqZZhQN/zaCrJ19KNzbB2tNIwoq+1CsJLTUiISrBJHQyDQe&#13;
Brb5TiJ71yAs9fQU40Y4qumStTMoqJGbelcJIqGR6f3pMCxlD2Bj1Qiya1phr2tEkWsAdueYklAe&#13;
jbZKEAmNTG9dDSJr+z5sdJ3COtdxFDQcR4lnCPbKUdi9IuGqwFE+CPsdR3H/4cfnnotAD+YMYGZ6&#13;
MiohjUu7FCi7hdB9O3OvM+oAnKG7WVWicXxjg/mGaegx+mMw98yi9KYgwrNX1MzV+qr50cXUtIj6&#13;
P/9s/PqkmCf/NKvagQf1WVEa/t5SNQCbcwi5uzqxZc9o3P4yApEwzViq1V/c6g58Zf9TeOHPs3j5&#13;
zQm8/oEff/kwgL9+DLx+/uqSePPixPzrG+cn8dr7E3jzwgxe/3AGL73xEaYm1YEO4ySkOcUK/Pcu&#13;
TeD5Vy/iT+8D5y4CH74fjlufVPPdnuexoeI+OHzt+sGgRTWjKPZFr5Qpqo3fX0YgEqYZa90Ysqo6&#13;
kVfVDEfNSWws24e1t92Nz+74Jj699WtYt/X4krl18zH9unZLE27Z1KTeN+PWTc34B8thXLs6rQVY&#13;
OKL9ckpIc6e5XRgP4mDzo8gr+w42Vqg22m37sK7gq3Hrkmq2fa4T68sOotDXjeLaYWyqP6VfSUCL&#13;
62Tc/jICkTDNOHYPwF43gILaQawra9VjnOR5euHYOwL7nUOwqe+XgsXXizzVtqH75PK9fch196r3&#13;
Q2oeA7iltB3jlye4FwiFSD6qs5Ie6U2xkpCqoQebf4INOw/Bpkqikvqz2OwdjlufVJNT2aT2Q4d+&#13;
bgmVhDT6Nj2XkErG3KpjcfvLCETCNJO/6whsrmZ10Kl2SGUPttz1GHKcA9jo7MaGynYlUeeSyPO2&#13;
I8fdql47kasOtmxnu5Y8x9WNz97RhEsXx68rBSktp4S6LIwEEfIDh44/hfXbDiHPOYr8qhE4qgfi&#13;
1ifVWF1duu1HtzGRhLRPcitPwuZpQ77zeNz+MgKRMM0UVqq/tlUnUOjtUlXSdmzZexpWpyoh3f0o&#13;
9vTB4RlbEvpC5Oph/VrgHIOlkl5Pw1Z9Butv68OHH1xS1c/rtQgGqZ24XBJeVRJO64flnmj7Oey7&#13;
GlHUcFbfy7etbjBufVKN3dOPkroRfVJmU8Mw7F66m56eVU8d9dJZvyrYptofNNy61dOJdRWNqgRs&#13;
VjK2YpOqHm33DcFR17hEjsJe+1D0fW0TbN5j6vUE7L4mZFUcwnvnzivprrdwOSWM4BpCwWk9DP0R&#13;
JWFe+THY60eQXdWmqogti6xPaqGxZGL7YvPuIeRXd2gZqVoaKxmNRiRMMw43jXE5gvzaAWR5W7Gu&#13;
uklVx9TBp6qj1tI2VV0aWRI29zAsTtW2cqsS0XlKV/NsrtOwVJ3GOlUSnnv3wzgJAwFVN1wmCWfh&#13;
13OhOR7u/i9spDbanWPIcreotvKJuPVJNbQPqA1YVNunmgQDWF/ahC27qZQcVrUTuZ9QSAGFzn5d&#13;
tbVWt6uShR662qPaO31azpu2NuPC+cvzFwZEwtGzpOG5+mnsNZ0pQo8lo/kqDjU/DWtVoz5xRHe5&#13;
F7kzY6AlI3GoGpFIaHJEQnMjEq4AREJzIxKuAERCcyMSrgBEQnMjEq4AREJzIxKuAERCcyMSrgBE&#13;
QnMjEq4AMl5C0A3MoaiELT9WEh5VEg6gwDugJDT+plqS4Ebw+FQjEq4ARMKlwaXj8PhUIxKuAETC&#13;
pcGl4/D4VCMSrgBEwqXBpePw+FQjEq4ARMKlwaXj8PhUIxKuAETCpcGl4/D4VCMSrgBEwqXBpePw&#13;
+FQjEq4ARMKlwaXj8PhUIxKuADJdQlBPPc1X8cDJn8BWfRy2WrrZdkjf2MzXZ7nh0nF4fDoQCU2O&#13;
SLg0uHQcHp8OREKTIxIuDS4dh8enA5HQ5IiES4NLx+Hx6UAkNDki4dLg0nF4fDoQCU2OSLg0uHQc&#13;
Hp8OREKTIxIuDS4dh8enA5HQ5IiES4NLx+Hx6UAkNDmZLmGmd9ZnAiKhyREJzY9IaHJEQvMjEpoc&#13;
kdD8iIQmRyQ0PyKhyREJzY9IaHJEQvMjEpockdD8iIQmRyQ0PyKhyREJzY9IaHJEQvMjEpockdD8&#13;
iIQmRyQ0PyKhyREJzY9IaHJEQvMjEpockdD8iIQmRyQ0N3TjsEhockRCcyMSrgBEQnMjEq4AREJz&#13;
IxKuAERCcyMSrgBEQnMjEq4AREJzIxKuAERCcyMSrgBEQvMjEpockdD8iIQmRyQ0PyKhyREJzY9I&#13;
aHJEQvMjEpockdD8iIQmRyQ0PyKhyREJzY9IaHIyXkIlYOwhoYean1YSNioJh0APCS1y98atz2pE&#13;
JDQ5IqH5EQlNjkhofkRCkyMSmh+R0OSIhOZHJDQ5IqH5EQlNjkhofkRCkyMSmp81WWUn1Q7rRqGv&#13;
H5sahmH39sLq6kJJPW2o+AmEzCLjJZTO+hvjnLupl+7uJfmK6wZRVDugpaTvSMy4iYSMQiQ0N4Ve&#13;
JSGVeCQefUHiUWlI7y3OTi0ln0jILERCc2P3dmINlYBU4pGAVAKSkPQ5r6p9Xk4hcxEJzc+a/OoO&#13;
LR+ViFT6UXuQSkD6ngTlEwiZhUhobhzuAazZsmdUl3pUDSUZcyvbtJAkI8EnEjILkdDc7Kjtx5o7&#13;
731uvupJ1dCYhBRAUvKJhMxCJDQ3n7v7LNbc0/WOrnrSFyQfvadXqYqaA5HQ3Bzu/jXWPPnfl1BU&#13;
1YjiXWOwVQxj295B1SZsVhurD9trntEyLoRO4MSQLgzjyXQJgWk104Ce9wMnfwpb1QnYakeUhGq5&#13;
XW1x67PSsPnOYsveM9hQ+hC21LWgpOYErJUn4fAM4+ZtHfjdi3/FmqtqM60v/mcUlHVg+94n8Nkd&#13;
h5DnOqbaiIOwVJzSGf09CQk+U2F5EQkzHFXi37yjEWX//DjyXa3IdzZjS8MAbKrZRwTVFlpzZWYc&#13;
z774ITZuP4BbS9tRsHcUlt2dyK5WG8t1fZV0MRHjZiosKyJhZuPwdmDT7hGs39WJLNcQ7viXHyGv&#13;
+iSsZfvR8+hbCCkN10SC57WNu/a2qGroGDa4B7De3YWCerWDffF1di4i/11YXkTCzKZYVT8t7jZY&#13;
68/i5opBbKjuQ5H3JG733osZtS8C8GMNIqpCqjbQy28C9qoW5CsJrb5hVZcdUO3DM/oMKT9LurB6&#13;
ymcqLC8iYWZjrTyMzbsHsONLP8DNqsm3obwRJa59ePt8dF/QrlmDcBD+qRBm1Ub6y/vALYXfQomn&#13;
C5vrRrH+tujF3QuJZS4SZgYiYWZTUqdKQ18Pbtryn9ja0IHCqnvx+z9P6v1AG4W2y5qIsi/kp9PI&#13;
wMwMcE4Zuq3yAHaoqqjDGb2jguASCpmBSJjhuAaRU9qErTXHsfcrbXj1zUl88MGV6D4J+PUWWkPv&#13;
oeqlgal3gdlLUC1FzKgN1n76HVjKT8RJKCJmFiJhZnPrji59FrTv0bdx1R/d/mrDY+rji8q1oHob&#13;
VNXRBOn/vvguGrufwd6vP4LN9YPI93SioK5bidkBu0v6CY0m0yVc8Tf1OqMnKOluCPpsd/Vhu68P&#13;
d33rjO6I/91Lr+kTnyFNWP2jd2HyMLpfVPp/9kmASsVmTwgAAAAASUVORK5CYII=</y:Resource>
    </y:Resources>
  </data>
</graphml>
